tmp_client/doc/TMP_example/simulation_flow/do_modelsim2/testdesign/sim/uut.vcd
$date
	Wed Jun 10 14:26:08 2015
$end
$version
	ModelSim Version 6.6d
$end
$timescale
	1ps
$end
$scope module sim_top $end
$scope module uut $end
$var wire 1 ! clkin $end
$var wire 1 " reset $end
$var wire 1 # datain [7] $end
$var wire 1 $ datain [6] $end
$var wire 1 % datain [5] $end
$var wire 1 & datain [4] $end
$var wire 1 ' datain [3] $end
$var wire 1 ( datain [2] $end
$var wire 1 ) datain [1] $end
$var wire 1 * datain [0] $end
$var reg 1 + wrapout $end
$var wire 1 , sclk $end
$var wire 1 - q [7] $end
$var wire 1 . q [6] $end
$var wire 1 / q [5] $end
$var wire 1 0 q [4] $end
$var wire 1 1 q [3] $end
$var wire 1 2 q [2] $end
$var wire 1 3 q [1] $end
$var wire 1 4 q [0] $end
$scope module inst $end
$var wire 1 ! clkin $end
$var wire 1 " reset $end
$var wire 1 # datain [7] $end
$var wire 1 $ datain [6] $end
$var wire 1 % datain [5] $end
$var wire 1 & datain [4] $end
$var wire 1 ' datain [3] $end
$var wire 1 ( datain [2] $end
$var wire 1 ) datain [1] $end
$var wire 1 * datain [0] $end
$var wire 1 , sclk $end
$var wire 1 - q [7] $end
$var wire 1 . q [6] $end
$var wire 1 / q [5] $end
$var wire 1 0 q [4] $end
$var wire 1 1 q [3] $end
$var wire 1 2 q [2] $end
$var wire 1 3 q [1] $end
$var wire 1 4 q [0] $end
$var wire 1 5 buf_clkin $end
$var wire 1 6 scuba_vhi $end
$var wire 1 7 dataini_t7 $end
$var wire 1 8 dataini_t6 $end
$var wire 1 9 dataini_t5 $end
$var wire 1 : dataini_t4 $end
$var wire 1 ; dataini_t3 $end
$var wire 1 < dataini_t2 $end
$var wire 1 = dataini_t1 $end
$var wire 1 > dataini_t0 $end
$var wire 1 ? buf_dataini7 $end
$var wire 1 @ buf_dataini6 $end
$var wire 1 A buf_dataini5 $end
$var wire 1 B buf_dataini4 $end
$var wire 1 C buf_dataini3 $end
$var wire 1 D buf_dataini2 $end
$var wire 1 E buf_dataini1 $end
$var wire 1 F buf_dataini0 $end
$scope module Inst3_IB $end
$var wire 1 ! I $end
$var wire 1 5 O $end
$upscope $end
$scope module Inst2_IFS1P3DX7 $end
$var parameter 56 G GSR $end
$var wire 1 7 D $end
$var wire 1 6 SP $end
$var wire 1 5 SCLK $end
$var wire 1 " CD $end
$var wire 1 - Q $end
$var reg 1 H SRN $end
$var reg 1 I QR $end
$var reg 1 J notifier $end
$var wire 1 K QB $end
$var tri1 1 L GSR_sig $end
$var tri1 1 M PUR_sig $end
$var wire 1 N SR1 $end
$var wire 1 O SR $end
$upscope $end
$scope module Inst2_IFS1P3DX6 $end
$var parameter 56 P GSR $end
$var wire 1 8 D $end
$var wire 1 6 SP $end
$var wire 1 5 SCLK $end
$var wire 1 " CD $end
$var wire 1 . Q $end
$var reg 1 Q SRN $end
$var reg 1 R QR $end
$var reg 1 S notifier $end
$var wire 1 T QB $end
$var tri1 1 U GSR_sig $end
$var tri1 1 V PUR_sig $end
$var wire 1 W SR1 $end
$var wire 1 X SR $end
$upscope $end
$scope module Inst2_IFS1P3DX5 $end
$var parameter 56 Y GSR $end
$var wire 1 9 D $end
$var wire 1 6 SP $end
$var wire 1 5 SCLK $end
$var wire 1 " CD $end
$var wire 1 / Q $end
$var reg 1 Z SRN $end
$var reg 1 [ QR $end
$var reg 1 \ notifier $end
$var wire 1 ] QB $end
$var tri1 1 ^ GSR_sig $end
$var tri1 1 _ PUR_sig $end
$var wire 1 ` SR1 $end
$var wire 1 a SR $end
$upscope $end
$scope module Inst2_IFS1P3DX4 $end
$var parameter 56 b GSR $end
$var wire 1 : D $end
$var wire 1 6 SP $end
$var wire 1 5 SCLK $end
$var wire 1 " CD $end
$var wire 1 0 Q $end
$var reg 1 c SRN $end
$var reg 1 d QR $end
$var reg 1 e notifier $end
$var wire 1 f QB $end
$var tri1 1 g GSR_sig $end
$var tri1 1 h PUR_sig $end
$var wire 1 i SR1 $end
$var wire 1 j SR $end
$upscope $end
$scope module Inst2_IFS1P3DX3 $end
$var parameter 56 k GSR $end
$var wire 1 ; D $end
$var wire 1 6 SP $end
$var wire 1 5 SCLK $end
$var wire 1 " CD $end
$var wire 1 1 Q $end
$var reg 1 l SRN $end
$var reg 1 m QR $end
$var reg 1 n notifier $end
$var wire 1 o QB $end
$var tri1 1 p GSR_sig $end
$var tri1 1 q PUR_sig $end
$var wire 1 r SR1 $end
$var wire 1 s SR $end
$upscope $end
$scope module Inst2_IFS1P3DX2 $end
$var parameter 56 t GSR $end
$var wire 1 < D $end
$var wire 1 6 SP $end
$var wire 1 5 SCLK $end
$var wire 1 " CD $end
$var wire 1 2 Q $end
$var reg 1 u SRN $end
$var reg 1 v QR $end
$var reg 1 w notifier $end
$var wire 1 x QB $end
$var tri1 1 y GSR_sig $end
$var tri1 1 z PUR_sig $end
$var wire 1 { SR1 $end
$var wire 1 | SR $end
$upscope $end
$scope module Inst2_IFS1P3DX1 $end
$var parameter 56 } GSR $end
$var wire 1 = D $end
$var wire 1 6 SP $end
$var wire 1 5 SCLK $end
$var wire 1 " CD $end
$var wire 1 3 Q $end
$var reg 1 ~ SRN $end
$var reg 1 !! QR $end
$var reg 1 "! notifier $end
$var wire 1 #! QB $end
$var tri1 1 $! GSR_sig $end
$var tri1 1 %! PUR_sig $end
$var wire 1 &! SR1 $end
$var wire 1 '! SR $end
$upscope $end
$scope module scuba_vhi_inst $end
$var wire 1 6 Z $end
$var supply1 1 (! VSS $end
$upscope $end
$scope module Inst2_IFS1P3DX0 $end
$var parameter 56 )! GSR $end
$var wire 1 > D $end
$var wire 1 6 SP $end
$var wire 1 5 SCLK $end
$var wire 1 " CD $end
$var wire 1 4 Q $end
$var reg 1 *! SRN $end
$var reg 1 +! QR $end
$var reg 1 ,! notifier $end
$var wire 1 -! QB $end
$var tri1 1 .! GSR_sig $end
$var tri1 1 /! PUR_sig $end
$var wire 1 0! SR1 $end
$var wire 1 1! SR $end
$upscope $end
$scope module Inst1_IB7 $end
$var wire 1 # I $end
$var wire 1 ? O $end
$upscope $end
$scope module Inst1_IB6 $end
$var wire 1 $ I $end
$var wire 1 @ O $end
$upscope $end
$scope module Inst1_IB5 $end
$var wire 1 % I $end
$var wire 1 A O $end
$upscope $end
$scope module Inst1_IB4 $end
$var wire 1 & I $end
$var wire 1 B O $end
$upscope $end
$scope module Inst1_IB3 $end
$var wire 1 ' I $end
$var wire 1 C O $end
$upscope $end
$scope module Inst1_IB2 $end
$var wire 1 ( I $end
$var wire 1 D O $end
$upscope $end
$scope module Inst1_IB1 $end
$var wire 1 ) I $end
$var wire 1 E O $end
$upscope $end
$scope module Inst1_IB0 $end
$var wire 1 * I $end
$var wire 1 F O $end
$upscope $end
$upscope $end
$upscope $end
$upscope $end
$enddefinitions $end
#0
$dumpvars
b1000101010011100100000101000010010011000100010101000100 G
b1000101010011100100000101000010010011000100010101000100 P
b1000101010011100100000101000010010011000100010101000100 Y
b1000101010011100100000101000010010011000100010101000100 b
b1000101010011100100000101000010010011000100010101000100 k
b1000101010011100100000101000010010011000100010101000100 t
b1000101010011100100000101000010010011000100010101000100 }
b1000101010011100100000101000010010011000100010101000100 )!
1+
0H
0I
xJ
0Q
0R
xS
0Z
0[
x\
0c
0d
xe
0l
0m
xn
0u
0v
xw
0~
0!!
x"!
0*!
0+!
x,!
15
16
x7
x8
x9
x:
x;
x<
x=
x>
x?
x@
xA
xB
xC
xD
xE
xF
0K
1L
0M
1N
1O
0T
1U
0V
1W
1X
0]
1^
0_
1`
1a
0f
1g
0h
1i
1j
0o
1p
0q
1r
1s
0x
1y
0z
1{
1|
0#!
1$!
0%!
1&!
1'!
1(!
0-!
1.!
0/!
10!
11!
1"
1!
x*
x)
x(
x'
x&
x%
x$
x#
1,
04
03
02
01
00
0/
0.
0-
$end
#1000
1/!
1%!
1z
1q
1h
1_
1V
1M
1H
1Q
1Z
1c
1l
1u
1~
1*!
0N
0W
0`
0i
0r
0{
0&!
00!
#5000
0!
05
0,
#10000
1!
15
1,
#15000
0!
05
0,
#20000
1!
15
1,
#25000
0!
05
0,
#30000
1!
15
1,
#35000
0!
05
0,
#40000
1!
15
1,
#45000
0!
05
0,
#50000
1!
15
1,
#55000
0!
05
0,
#60000
1!
15
1,
#65000
0!
05
0,
#70000
1!
15
1,
#75000
0!
05
0,
#80000
1!
15
1,
#85000
0!
05
0,
#90000
1!
15
1,
#93000
0"
01!
0'!
0|
0s
0j
0a
0X
0O
#95000
0!
05
0,
#100000
1!
15
1,
x-!
x#!
xx
xo
xf
x]
xT
xK
0*
0F
0)
0E
0(
0D
0'
0C
0&
0B
0%
0A
0$
0@
0#
0?
07
08
09
0:
0;
0<
0=
0>
0+
xI
xR
x[
xd
xm
xv
x!!
x+!
x-
x.
x/
x0
x1
x2
x3
x4
#105000
0!
05
0,
#110000
1!
15
1,
0-!
0#!
0x
0o
0f
0]
0T
0K
1*
1F
1>
0I
0R
0[
0d
0m
0v
0!!
0+!
0-
0.
0/
00
01
02
03
04
#115000
0!
05
0,
#120000
1!
15
1,
1-!
0*
0F
1)
1E
1=
0>
1+!
14
#125000
0!
05
0,
#130000
1!
15
1,
0-!
1#!
1*
1F
1>
1!!
0+!
13
04
#135000
0!
05
0,
#140000
1!
15
1,
1-!
0*
0F
0)
0E
1(
1D
1<
0=
0>
1+!
14
#145000
0!
05
0,
#150000
1!
15
1,
0-!
0#!
1x
1*
1F
1>
1v
0!!
0+!
12
03
04
#155000
0!
05
0,
#160000
1!
15
1,
1-!
0*
0F
1)
1E
1=
0>
1+!
14
#165000
0!
05
0,
#170000
1!
15
1,
0-!
1#!
1*
1F
1>
1!!
0+!
13
04
#175000
0!
05
0,
#180000
1!
15
1,
1-!
0*
0F
0)
0E
0(
0D
1'
1C
1;
0<
0=
0>
1+!
14
#185000
0!
05
0,
#190000
1!
15
1,
0-!
0#!
0x
1o
1*
1F
1>
1m
0v
0!!
0+!
11
02
03
04
#195000
0!
05
0,
#200000
1!
15
1,
1-!
0*
0F
1)
1E
1=
0>
1+!
14
#205000
0!
05
0,
#210000
1!
15
1,
0-!
1#!
1*
1F
1>
1!!
0+!
13
04
#215000
0!
05
0,
#220000
1!
15
1,
1-!
0*
0F
0)
0E
1(
1D
1<
0=
0>
1+!
14
#225000
0!
05
0,
#230000
1!
15
1,
0-!
0#!
1x
1*
1F
1>
1v
0!!
0+!
12
03
04
#235000
0!
05
0,
#240000
1!
15
1,
1-!
0*
0F
1)
1E
1=
0>
1+!
14
#245000
0!
05
0,
#250000
1!
15
1,
0-!
1#!
1*
1F
1>
1!!
0+!
13
04
#255000
0!
05
0,
#260000
1!
15
1,
1-!
0*
0F
0)
0E
0(
0D
0'
0C
1&
1B
1:
0;
0<
0=
0>
1+!
14
#265000
0!
05
0,
#270000
1!
15
1,
0-!
0#!
0x
0o
1f
1*
1F
1>
1d
0m
0v
0!!
0+!
10
01
02
03
04
#275000
0!
05
0,
#280000
1!
15
1,
1-!
0*
0F
1)
1E
1=
0>
1+!
14
#285000
0!
05
0,
#290000
1!
15
1,
0-!
1#!
1*
1F
1>
1!!
0+!
13
04
#295000
0!
05
0,
#300000
1!
15
1,
1-!
0*
0F
0)
0E
1(
1D
1<
0=
0>
1+!
14
#305000
0!
05
0,
#310000
1!
15
1,
0-!
0#!
1x
1*
1F
1>
1v
0!!
0+!
12
03
04
#315000
0!
05
0,
#320000
1!
15
1,
1-!
0*
0F
1)
1E
1=
0>
1+!
14
#325000
0!
05
0,
#330000
1!
15
1,
0-!
1#!
1*
1F
1>
1!!
0+!
13
04
#335000
0!
05
0,
#340000
1!
15
1,
1-!
0*
0F
0)
0E
0(
0D
1'
1C
1;
0<
0=
0>
1+!
14
#345000
0!
05
0,
#350000
1!
15
1,
0-!
0#!
0x
1o
1*
1F
1>
1m
0v
0!!
0+!
11
02
03
04
#355000
0!
05
0,
#360000
1!
15
1,
1-!
0*
0F
1)
1E
1=
0>
1+!
14
#365000
0!
05
0,
#370000
1!
15
1,
0-!
1#!
1*
1F
1>
1!!
0+!
13
04
#375000
0!
05
0,
#380000
1!
15
1,
1-!
0*
0F
0)
0E
1(
1D
1<
0=
0>
1+!
14
#385000
0!
05
0,
#390000
1!
15
1,
0-!
0#!
1x
1*
1F
1>
1v
0!!
0+!
12
03
04
#395000
0!
05
0,
#400000
1!
15
1,
1-!
0*
0F
1)
1E
1=
0>
1+!
14
#405000
0!
05
0,
#410000
1!
15
1,
0-!
1#!
1*
1F
1>
1!!
0+!
13
04
#415000
0!
05
0,
#420000
1!
15
1,
1-!
0*
0F
0)
0E
0(
0D
0'
0C
0&
0B
1%
1A
19
0:
0;
0<
0=
0>
1+!
14
#425000
0!
05
0,
#430000
1!
15
1,
0-!
0#!
0x
0o
0f
1]
1*
1F
1>
1[
0d
0m
0v
0!!
0+!
1/
00
01
02
03
04
#435000
0!
05
0,
#440000
1!
15
1,
1-!
0*
0F
1)
1E
1=
0>
1+!
14
#445000
0!
05
0,
#450000
1!
15
1,
0-!
1#!
1*
1F
1>
1!!
0+!
13
04
#455000
0!
05
0,
#460000
1!
15
1,
1-!
0*
0F
0)
0E
1(
1D
1<
0=
0>
1+!
14
#465000
0!
05
0,
#470000
1!
15
1,
0-!
0#!
1x
1*
1F
1>
1v
0!!
0+!
12
03
04
#475000
0!
05
0,
#480000
1!
15
1,
1-!
0*
0F
1)
1E
1=
0>
1+!
14
#485000
0!
05
0,
#490000
1!
15
1,
0-!
1#!
1*
1F
1>
1!!
0+!
13
04
#495000
0!
05
0,
#500000
1!
15
1,
1-!
0*
0F
0)
0E
0(
0D
1'
1C
1;
0<
0=
0>
1+!
14
#505000
0!
05
0,
#510000
1!
15
1,
0-!
1o
0x
0#!
1*
1F
1>
0!!
0v
1m
0+!
03
02
11
04
#515000
0!
05
0,
#520000
1!
15
1,
1-!
0*
0F
1)
1E
1=
0>
1+!
14
#525000
0!
05
0,
#530000
1!
15
1,
0-!
1#!
1*
1F
1>
1!!
0+!
13
04
#535000
0!
05
0,
#540000
1!
15
1,
1-!
0*
0F
0)
0E
1(
1D
1<
0=
0>
1+!
14
#545000
0!
05
0,
#550000
1!
15
1,
0-!
1x
0#!
1*
1F
1>
0!!
1v
0+!
03
12
04
#555000
0!
05
0,
#560000
1!
15
1,
1-!
0*
0F
1)
1E
1=
0>
1+!
14
#565000
0!
05
0,
#570000
1!
15
1,
0-!
1#!
1*
1F
1>
1!!
0+!
13
04
#575000
0!
05
0,
#580000
1!
15
1,
1-!
0*
0F
0)
0E
0(
0D
0'
0C
1&
1B
1:
0;
0<
0=
0>
1+!
14
#585000
0!
05
0,
#590000
1!
15
1,
0-!
1f
0o
0x
0#!
1*
1F
1>
0!!
0v
0m
1d
0+!
03
02
01
10
04
#595000
0!
05
0,
#600000
1!
15
1,
1-!
0*
0F
1)
1E
1=
0>
1+!
14
#605000
0!
05
0,
#610000
1!
15
1,
0-!
1#!
1*
1F
1>
1!!
0+!
13
04
#615000
0!
05
0,
#620000
1!
15
1,
1-!
0*
0F
0)
0E
1(
1D
1<
0=
0>
1+!
14
#625000
0!
05
0,
#630000
1!
15
1,
0-!
1x
0#!
1*
1F
1>
0!!
1v
0+!
03
12
04
#635000
0!
05
0,
#640000
1!
15
1,
1-!
0*
0F
1)
1E
1=
0>
1+!
14
#645000
0!
05
0,
#650000
1!
15
1,
0-!
1#!
1*
1F
1>
1!!
0+!
13
04
#655000
0!
05
0,
#660000
1!
15
1,
1-!
0*
0F
0)
0E
0(
0D
1'
1C
1;
0<
0=
0>
1+!
14
#665000
0!
05
0,
#670000
1!
15
1,
0-!
1o
0x
0#!
1*
1F
1>
0!!
0v
1m
0+!
03
02
11
04
#675000
0!
05
0,
#680000
1!
15
1,
1-!
0*
0F
1)
1E
1=
0>
1+!
14
#685000
0!
05
0,
#690000
1!
15
1,
0-!
1#!
1*
1F
1>
1!!
0+!
13
04
#695000
0!
05
0,
#700000
1!
15
1,
1-!
0*
0F
0)
0E
1(
1D
1<
0=
0>
1+!
14
#705000
0!
05
0,
#710000
1!
15
1,
0-!
1x
0#!
1*
1F
1>
0!!
1v
0+!
03
12
04
#715000
0!
05
0,
#720000
1!
15
1,
1-!
0*
0F
1)
1E
1=
0>
1+!
14
#725000
0!
05
0,
#730000
1!
15
1,
0-!
1#!
1*
1F
1>
1!!
0+!
13
04
#735000
0!
05
0,
#740000
1!
15
1,
1-!
0*
0F
0)
0E
0(
0D
0'
0C
0&
0B
0%
0A
1$
1@
18
09
0:
0;
0<
0=
0>
1+!
14
#745000
0!
05
0,
#750000
1!
15
1,
0-!
1T
0]
0f
0o
0x
0#!
1*
1F
1>
0!!
0v
0m
0d
0[
1R
0+!
03
02
01
00
0/
1.
04
#755000
0!
05
0,
#760000
1!
15
1,
1-!
0*
0F
1)
1E
1=
0>
1+!
14
#765000
0!
05
0,
#770000
1!
15
1,
0-!
1#!
1*
1F
1>
1!!
0+!
13
04
#775000
0!
05
0,
#780000
1!
15
1,
1-!
0*
0F
0)
0E
1(
1D
1<
0=
0>
1+!
14
#785000
0!
05
0,
#790000
1!
15
1,
0-!
1x
0#!
1*
1F
1>
0!!
1v
0+!
03
12
04
#795000
0!
05
0,
#800000
1!
15
1,
1-!
0*
0F
1)
1E
1=
0>
1+!
14
#805000
0!
05
0,
#810000
1!
15
1,
0-!
1#!
1*
1F
1>
1!!
0+!
13
04
#815000
0!
05
0,
#820000
1!
15
1,
1-!
0*
0F
0)
0E
0(
0D
1'
1C
1;
0<
0=
0>
1+!
14
#825000
0!
05
0,
#830000
1!
15
1,
0-!
1o
0x
0#!
1*
1F
1>
0!!
0v
1m
0+!
03
02
11
04
#835000
0!
05
0,
#840000
1!
15
1,
1-!
0*
0F
1)
1E
1=
0>
1+!
14
#845000
0!
05
0,
#850000
1!
15
1,
0-!
1#!
1*
1F
1>
1!!
0+!
13
04
#855000
0!
05
0,
#860000
1!
15
1,
1-!
0*
0F
0)
0E
1(
1D
1<
0=
0>
1+!
14
#865000
0!
05
0,
#870000
1!
15
1,
0-!
1x
0#!
1*
1F
1>
0!!
1v
0+!
03
12
04
#875000
0!
05
0,
#880000
1!
15
1,
1-!
0*
0F
1)
1E
1=
0>
1+!
14
#885000
0!
05
0,
#890000
1!
15
1,
0-!
1#!
1*
1F
1>
1!!
0+!
13
04
#895000
0!
05
0,
#900000
1!
15
1,
1-!
0*
0F
0)
0E
0(
0D
0'
0C
1&
1B
1:
0;
0<
0=
0>
1+!
14
#905000
0!
05
0,
#910000
1!
15
1,
0-!
1f
0o
0x
0#!
1*
1F
1>
0!!
0v
0m
1d
0+!
03
02
01
10
04
#915000
0!
05
0,
#920000
1!
15
1,
1-!
0*
0F
1)
1E
1=
0>
1+!
14
#925000
0!
05
0,
#930000
1!
15
1,
0-!
1#!
1*
1F
1>
1!!
0+!
13
04
#935000
0!
05
0,
#940000
1!
15
1,
1-!
0*
0F
0)
0E
1(
1D
1<
0=
0>
1+!
14
#945000
0!
05
0,
#950000
1!
15
1,
0-!
1x
0#!
1*
1F
1>
0!!
1v
0+!
03
12
04
#955000
0!
05
0,
#960000
1!
15
1,
1-!
0*
0F
1)
1E
1=
0>
1+!
14
#965000
0!
05
0,
#970000
1!
15
1,
0-!
1#!
1*
1F
1>
1!!
0+!
13
04
#975000
0!
05
0,
#980000
1!
15
1,
1-!
0*
0F
0)
0E
0(
0D
1'
1C
1;
0<
0=
0>
1+!
14
#985000
0!
05
0,
#990000
1!
15
1,
0-!
1o
0x
0#!
1*
1F
1>
0!!
0v
1m
0+!
03
02
11
04
#995000
0!
05
0,
#1000000
1!
15
1,
1-!
0*
0F
1)
1E
1=
0>
1+!
14
#1005000
0!
05
0,
#1010000
1!
15
1,
0-!
1#!
1*
1F
1>
1!!
0+!
13
04
#1015000
0!
05
0,
#1020000
1!
15
1,
1-!
0*
0F
0)
0E
1(
1D
1<
0=
0>
1+!
14
#1025000
0!
05
0,
#1030000
1!
15
1,
0-!
1x
0#!
1*
1F
1>
0!!
1v
0+!
03
12
04
#1035000
0!
05
0,
#1040000
1!
15
1,
1-!
0*
0F
1)
1E
1=
0>
1+!
14
#1045000
0!
05
0,
#1050000
1!
15
1,
0-!
1#!
1*
1F
1>
1!!
0+!
13
04
#1055000
0!
05
0,
#1060000
1!
15
1,
1-!
0*
0F
0)
0E
0(
0D
0'
0C
0&
0B
1%
1A
19
0:
0;
0<
0=
0>
1+!
14
#1065000
0!
05
0,
#1070000
1!
15
1,
0-!
1]
0f
0o
0x
0#!
1*
1F
1>
0!!
0v
0m
0d
1[
0+!
03
02
01
00
1/
04
#1075000
0!
05
0,
#1080000
1!
15
1,
1-!
0*
0F
1)
1E
1=
0>
1+!
14
#1085000
0!
05
0,
#1090000
1!
15
1,
0-!
1#!
1*
1F
1>
1!!
0+!
13
04
#1095000
0!
05
0,
#1100000
1!
15
1,
1-!
0*
0F
0)
0E
1(
1D
1<
0=
0>
1+!
14
#1105000
0!
05
0,
#1110000
1!
15
1,
0-!
1x
0#!
1*
1F
1>
0!!
1v
0+!
03
12
04
#1115000
0!
05
0,
#1120000
1!
15
1,
1-!
0*
0F
1)
1E
1=
0>
1+!
14
#1125000
0!
05
0,
#1130000
1!
15
1,
0-!
1#!
1*
1F
1>
1!!
0+!
13
04
#1135000
0!
05
0,
#1140000
1!
15
1,
1-!
0*
0F
0)
0E
0(
0D
1'
1C
1;
0<
0=
0>
1+!
14
#1145000
0!
05
0,
#1150000
1!
15
1,
0-!
1o
0x
0#!
1*
1F
1>
0!!
0v
1m
0+!
03
02
11
04
#1155000
0!
05
0,
#1160000
1!
15
1,
1-!
0*
0F
1)
1E
1=
0>
1+!
14
#1165000
0!
05
0,
#1170000
1!
15
1,
0-!
1#!
1*
1F
1>
1!!
0+!
13
04
#1175000
0!
05
0,
#1180000
1!
15
1,
1-!
0*
0F
0)
0E
1(
1D
1<
0=
0>
1+!
14
#1185000
0!
05
0,
#1190000
1!
15
1,
0-!
1x
0#!
1*
1F
1>
0!!
1v
0+!
03
12
04
#1195000
0!
05
0,
#1200000
1!
15
1,
1-!
0*
0F
1)
1E
1=
0>
1+!
14
#1205000
0!
05
0,
#1210000
1!
15
1,
0-!
1#!
1*
1F
1>
1!!
0+!
13
04
#1215000
0!
05
0,
#1220000
1!
15
1,
1-!
0*
0F
0)
0E
0(
0D
0'
0C
1&
1B
1:
0;
0<
0=
0>
1+!
14
#1225000
0!
05
0,
#1230000
1!
15
1,
0-!
1f
0o
0x
0#!
1*
1F
1>
0!!
0v
0m
1d
0+!
03
02
01
10
04
#1235000
0!
05
0,
#1240000
1!
15
1,
1-!
0*
0F
1)
1E
1=
0>
1+!
14
#1245000
0!
05
0,
#1250000
1!
15
1,
0-!
1#!
1*
1F
1>
1!!
0+!
13
04
#1255000
0!
05
0,
#1260000
1!
15
1,
1-!
0*
0F
0)
0E
1(
1D
1<
0=
0>
1+!
14
#1265000
0!
05
0,
#1270000
1!
15
1,
0-!
1x
0#!
1*
1F
1>
0!!
1v
0+!
03
12
04
#1275000
0!
05
0,
#1280000
1!
15
1,
1-!
0*
0F
1)
1E
1=
0>
1+!
14
#1285000
0!
05
0,
#1290000
1!
15
1,
0-!
1#!
1*
1F
1>
1!!
0+!
13
04
#1295000
0!
05
0,
#1300000
1!
15
1,
1-!
0*
0F
0)
0E
0(
0D
1'
1C
1;
0<
0=
0>
1+!
14
#1305000
0!
05
0,
#1310000
1!
15
1,
0-!
1o
0x
0#!
1*
1F
1>
0!!
0v
1m
0+!
03
02
11
04
#1315000
0!
05
0,
#1320000
1!
15
1,
1-!
0*
0F
1)
1E
1=
0>
1+!
14
#1325000
0!
05
0,
#1330000
1!
15
1,
0-!
1#!
1*
1F
1>
1!!
0+!
13
04
#1335000
0!
05
0,
#1340000
1!
15
1,
1-!
0*
0F
0)
0E
1(
1D
1<
0=
0>
1+!
14
#1345000
0!
05
0,
#1350000
1!
15
1,
0-!
1x
0#!
1*
1F
1>
0!!
1v
0+!
03
12
04
#1355000
0!
05
0,
#1360000
1!
15
1,
1-!
0*
0F
1)
1E
1=
0>
1+!
14
#1365000
0!
05
0,
#1370000
1!
15
1,
0-!
1#!
1*
1F
1>
1!!
0+!
13
04
#1375000
0!
05
0,
#1380000
1!
15
1,
1-!
0*
0F
0)
0E
0(
0D
0'
0C
0&
0B
0%
0A
0$
0@
1#
1?
17
08
09
0:
0;
0<
0=
0>
1+!
14
#1385000
0!
05
0,
#1390000
1!
15
1,
0-!
1K
0T
0]
0f
0o
0x
0#!
1*
1F
1>
0!!
0v
0m
0d
0[
0R
1I
0+!
03
02
01
00
0/
0.
1-
04
#1395000
0!
05
0,
#1400000
1!
15
1,
1-!
0*
0F
1)
1E
1=
0>
1+!
14
#1405000
0!
05
0,
#1410000
1!
15
1,
0-!
1#!
1*
1F
1>
1!!
0+!
13
04
#1415000
0!
05
0,
#1420000
1!
15
1,
1-!
0*
0F
0)
0E
1(
1D
1<
0=
0>
1+!
14
#1425000
0!
05
0,
#1430000
1!
15
1,
0-!
1x
0#!
1*
1F
1>
0!!
1v
0+!
03
12
04
#1435000
0!
05
0,
#1440000
1!
15
1,
1-!
0*
0F
1)
1E
1=
0>
1+!
14
#1445000
0!
05
0,
#1450000
1!
15
1,
0-!
1#!
1*
1F
1>
1!!
0+!
13
04
#1455000
0!
05
0,
#1460000
1!
15
1,
1-!
0*
0F
0)
0E
0(
0D
1'
1C
1;
0<
0=
0>
1+!
14
#1465000
0!
05
0,
#1470000
1!
15
1,
0-!
1o
0x
0#!
1*
1F
1>
0!!
0v
1m
0+!
03
02
11
04
#1475000
0!
05
0,
#1480000
1!
15
1,
1-!
0*
0F
1)
1E
1=
0>
1+!
14
#1485000
0!
05
0,
#1490000
1!
15
1,
0-!
1#!
1*
1F
1>
1!!
0+!
13
04
#1495000
0!
05
0,
#1500000
1!
15
1,
1-!
0*
0F
0)
0E
1(
1D
1<
0=
0>
1+!
14
#1505000
0!
05
0,
#1510000
1!
15
1,
0-!
1x
0#!
1*
1F
1>
0!!
1v
0+!
03
12
04
#1515000
0!
05
0,
#1520000
1!
15
1,
1-!
0*
0F
1)
1E
1=
0>
1+!
14
#1525000
0!
05
0,
#1530000
1!
15
1,
0-!
1#!
1*
1F
1>
1!!
0+!
13
04
#1535000
0!
05
0,
#1540000
1!
15
1,
1-!
0*
0F
0)
0E
0(
0D
0'
0C
1&
1B
1:
0;
0<
0=
0>
1+!
14
#1545000
0!
05
0,
#1550000
1!
15
1,
0-!
1f
0o
0x
0#!
1*
1F
1>
0!!
0v
0m
1d
0+!
03
02
01
10
04
#1555000
0!
05
0,
#1560000
1!
15
1,
1-!
0*
0F
1)
1E
1=
0>
1+!
14
#1565000
0!
05
0,
#1570000
1!
15
1,
0-!
1#!
1*
1F
1>
1!!
0+!
13
04
#1575000
0!
05
0,
#1580000
1!
15
1,
1-!
0*
0F
0)
0E
1(
1D
1<
0=
0>
1+!
14
#1585000
0!
05
0,
#1590000
1!
15
1,
0-!
1x
0#!
1*
1F
1>
0!!
1v
0+!
03
12
04
#1595000
0!
05
0,
#1600000
1!
15
1,
1-!
0*
0F
1)
1E
1=
0>
1+!
14
#1605000
0!
05
0,
#1610000
1!
15
1,
0-!
1#!
1*
1F
1>
1!!
0+!
13
04
#1615000
0!
05
0,
#1620000
1!
15
1,
1-!
0*
0F
0)
0E
0(
0D
1'
1C
1;
0<
0=
0>
1+!
14
#1625000
0!
05
0,
#1630000
1!
15
1,
0-!
1o
0x
0#!
1*
1F
1>
0!!
0v
1m
0+!
03
02
11
04
#1635000
0!
05
0,
#1640000
1!
15
1,
1-!
0*
0F
1)
1E
1=
0>
1+!
14
#1645000
0!
05
0,
#1650000
1!
15
1,
0-!
1#!
1*
1F
1>
1!!
0+!
13
04
#1655000
0!
05
0,
#1660000
1!
15
1,
1-!
0*
0F
0)
0E
1(
1D
1<
0=
0>
1+!
14
#1665000
0!
05
0,
#1670000
1!
15
1,
0-!
1x
0#!
1*
1F
1>
0!!
1v
0+!
03
12
04
#1675000
0!
05
0,
#1680000
1!
15
1,
1-!
0*
0F
1)
1E
1=
0>
1+!
14
#1685000
0!
05
0,
#1690000
1!
15
1,
0-!
1#!
1*
1F
1>
1!!
0+!
13
04
#1695000
0!
05
0,
#1700000
1!
15
1,
1-!
0*
0F
0)
0E
0(
0D
0'
0C
0&
0B
1%
1A
19
0:
0;
0<
0=
0>
1+!
14
#1705000
0!
05
0,
#1710000
1!
15
1,
0-!
1]
0f
0o
0x
0#!
1*
1F
1>
0!!
0v
0m
0d
1[
0+!
03
02
01
00
1/
04
#1715000
0!
05
0,
#1720000
1!
15
1,
1-!
0*
0F
1)
1E
1=
0>
1+!
14
#1725000
0!
05
0,
#1730000
1!
15
1,
0-!
1#!
1*
1F
1>
1!!
0+!
13
04
#1735000
0!
05
0,
#1740000
1!
15
1,
1-!
0*
0F
0)
0E
1(
1D
1<
0=
0>
1+!
14
#1745000
0!
05
0,
#1750000
1!
15
1,
0-!
1x
0#!
1*
1F
1>
0!!
1v
0+!
03
12
04
#1755000
0!
05
0,
#1760000
1!
15
1,
1-!
0*
0F
1)
1E
1=
0>
1+!
14
#1765000
0!
05
0,
#1770000
1!
15
1,
0-!
1#!
1*
1F
1>
1!!
0+!
13
04
#1775000
0!
05
0,
#1780000
1!
15
1,
1-!
0*
0F
0)
0E
0(
0D
1'
1C
1;
0<
0=
0>
1+!
14
#1785000
0!
05
0,
#1790000
1!
15
1,
0-!
1o
0x
0#!
1*
1F
1>
0!!
0v
1m
0+!
03
02
11
04
#1795000
0!
05
0,
